41.7022
72.0324
0.0114
30.2333
14.6756
9.2339
18.626
34.5561
39.6767
53.8817
41.9195
68.522
20.4452
87.8117
2.7388
67.0468
41.7305
55.869
14.0387
19.8101
80.0745
96.8262
31.3424
69.2323
87.6389
89.4607
8.5044
3.9055
16.983
87.8143
9.8347
42.1108
95.789
53.3165
69.1877
31.5516
68.6501
83.4626
1.8288
75.0144
98.8861
74.8166
28.0444
78.9279
10.3226
44.7894
90.8596
29.3614
28.7775
13.0029
1.9367
67.8836
21.1628
26.5547
49.1573
5.3363
57.4118
14.6729
58.9306
69.9758
10.2334
41.4056
69.44
41.4179
4.9953
53.5896
66.3795
51.4889
94.4595
58.6555
90.3402
13.7475
13.9276
80.7391
39.7677
16.5354
92.7509
34.7766
75.0812
72.5998
88.3306
62.3672
75.0942
34.8898
26.9928
89.5886
42.8091
96.484
66.3441
62.1696
11.4746
94.9489
44.9912
57.839
40.8137
23.7027
90.338
57.3679
0.287
61.7145
